Analysis of Ecological Data Select and prepare traits
…
traits_ammer %>%
  select(accepted_name, starts_with("trait_value")) %>%
  filter(if_any(-accepted_name, is.na))

# A tibble: 112 × 7
   accepted_name           trait_value_1.5.1 trait_value_3.3.1 trait_value_3.6.1
   <chr>                   <chr>             <chr>             <chr>            
 1 Acer pseudoplatanus     independent       anemochorous      biotic           
 2 Aegopodium podagraria   independent       autochorous       biotic           
 3 Agrostis stolonifera    independent       <NA>              abiotic          
 4 Alnus incana            independent       anemochorous      abiotic          
 5 Angelica sylvestris     independent       <NA>              biotic           
 6 Aquilegia atrata        independent       autochorous       <NA>             
 7 Asarum europaeum        independent       zoochorous        <NA>             
 8 Brachypodium sylvaticum independent       zoochorous        abiotic          
 9 Calamagrostis epigejos  independent       anemochorous      abiotic          
10 Calamagrostis varia     independent       <NA>              abiotic          
# ℹ 102 more rows
# ℹ 3 more variables: trait_value_3.7.1 <chr>, trait_value_3.21.1 <chr>,
#   trait_value_4.5.1 <chr>
…
trait_ids <- c(
  "1.2.2", "1.5.1", "1.6.3", "3.2.3", "3.3.1", "3.6.1", "3.7.1", "3.21.1",
  "4.1.3", "4.5.1"
  )

trait_meta %>%
  filter(Lvl3 %in% trait_ids) # Get an overview of selected traits

You can check for synonyms and closely related species which might have a trait value:

GIFT::GIFT_species_lookup(genus = "Aconitum", epithet = "lycoctonum") %>%
  tibble()

# A tibble: 22 × 19
   name_ID genus    species_epithet subtaxon         author matched epithetscore
     <dbl> <chr>    <chr>           <chr>            <chr>    <dbl>        <dbl>
 1     899 Aconitum lycoctonum      subsp. vulparia  <NA>         1            1
 2  108739 Aconitum lycoctonum      <NA>             L.           1            1
 3  108740 Aconitum lycoctonum      subsp. neapolit… (Ten.…       1            1
 4  108741 Aconitum lycoctonum      subsp. vulparia  (Rchb…       1            1
 5  119572 Aconitum lycoctonum      subsp. vulparia  (Rchb…       1            1
 6  141565 Aconitum altissimum      <NA>             Mill.        1            1
 7  284621 Aconitum lycoctonum      <NA>             <NA>         1            1
 8  539314 Aconitum lycoctonum      subsp. neapolit… (Ten.…       1            1
 9  539315 Aconitum lycoctonum      subsp. vulparia  (Rchb…       1            1
10  797115 Aconitum lycoctonum      subsp. lycocton… <NA>         1            1
# ℹ 12 more rows
# ℹ 12 more variables: overallscore <dbl>, resolved <dbl>, synonym <dbl>,
#   matched_subtaxon <dbl>, accepted <dbl>, service <chr>, work_ID <dbl>,
#   taxon_ID <dbl>, work_genus <chr>, work_species_epithet <chr>,
#   work_species <chr>, work_author <chr>
…
e.g. FloraWeb (BfN) or FloraVeg.EU (Chytrý et al. 2020)

Task

Search for the trait values of closely related species and use these values, if sensible.

data_gift <- data.table::fread(
  here("data", "processed", "data_processed_gift_total.csv")
) # read in the trait values from the GIFT database
data <- data_gift %>%
  filter(str_detect(work_species, "Aconitum")) %>%
  tibble()
data

# A tibble: 171 × 43
   work_ID work_species          work_author trait_value_1.2.2 trait_value_1.5.1
     <int> <chr>                 <chr>       <chr>             <chr>            
 1     571 Aconitum formosanum   Tamura      herb              <NA>             
 2     572 Aconitum fukutomei    Hayata      herb              <NA>             
 3     573 Aconitum maximum      Pall. ex D… forb              independent      
 4     574 Aconitum napellus     L.          forb              independent      
 5     576 Aconitum sachalinense F.Schmidt   herb              independent      
 6     577 Aconitum vulparia     Rchb.       forb              independent      
 7   56753 Aconitum anthora      L.          herb              independent      
 8   56755 Aconitum lycoctonum   L.          forb              <NA>             
 9   56757 Aconitum variegatum   L.          forb              independent      
10   56758 Aconitum degenii      Gáyer       herb              <NA>             
# ℹ 161 more rows
# ℹ 38 more variables: trait_value_1.6.3 <dbl>, trait_value_3.2.3 <dbl>,
#   trait_value_3.3.1 <chr>, trait_value_3.6.1 <chr>, trait_value_3.7.1 <chr>,
#   trait_value_3.21.1 <chr>, trait_value_4.1.3 <dbl>, trait_value_4.5.1 <chr>,
#   agreement_1.2.2 <dbl>, agreement_1.5.1 <dbl>, agreement_3.3.1 <dbl>,
#   agreement_3.6.1 <dbl>, agreement_3.7.1 <dbl>, agreement_3.21.1 <dbl>,
#   agreement_4.5.1 <int>, cv_1.6.3 <dbl>, cv_3.2.3 <dbl>, cv_4.1.3 <dbl>, …
…
