Analysis of Ecological Data How to get functional traits?
…
You can divide the leaf area by the leaf mass (Here, for illustration only and not for reproduction by yourself):

data <- traits_bricks %>%
  mutate( # create new columns or modify old ones
    sla1 = leaf1Area / leaf1Mass,
    sla2 = leaf2Area / leaf2Mass,
    sla3 = leaf3Area / leaf3Mass,
    sla_mean = (sla1 + sla2 + sla3) / 3
  ) %>%
  select(1:3, 8, starts_with("leaf"), starts_with("sla")) # select columns
data %>%
  select(plot, species, starts_with("sla"))

# A tibble: 100 × 6
   plot      species  sla1  sla2  sla3 sla_mean
   <chr>     <chr>   <dbl> <dbl> <dbl>    <dbl>
 1 AY30Amyac Acer     155.  176.  176.     169.
 2 AY30Anoac Acer     168.  178.  169.     171.
 3 AY30Tmyac Tilia    191.  215.  193.     200.
 4 AY30Tnoac Tilia    203.  203.  244.     217.
 5 BY30Amyac Acer     155   124.  143.     141.
 6 BY30Anoac Acer     144.  160.  147.     150.
 7 BY30Tmyac Tilia    186.  164.  171      173.
 8 BY30Tnoac Tilia    177.  161.  190      176.
 9 CY30Amyac Acer     147.  152.  144.     148.
10 CY30Anoac Acer     141.  149.  141.     143.
# ℹ 90 more rows
…
